<?xml version="1.0" encoding="utf-8"?>
<!-- Generator: Adobe Illustrator 16.0.0, SVG Export Plug-In . SVG Version: 6.00 Build 0)  -->
<!DOCTYPE svg PUBLIC "-//W3C//DTD SVG 1.1//EN" "http://www.w3.org/Graphics/SVG/1.1/DTD/svg11.dtd">
<svg version="1.1" id="Layer_1" xmlns="http://www.w3.org/2000/svg" xmlns:xlink="http://www.w3.org/1999/xlink" x="0px" y="0px"
	 width="100px" height="100px" viewBox="0 0 100 100" enable-background="new 0 0 100 100" xml:space="preserve">
<path fill="#EFC75E" d="M50,0c27.613,0,50,22.386,50,50s-22.387,50-50,50C22.386,100,0,77.614,0,50S22.386,0,50,0z"/>
<path display="none" fill="#E2574C" d="M23.594,32.664c9.478-9.633,18.871-5.424,26.396,1.448
	c7.521-6.872,16.841-11.158,26.394-1.448c7.445,7.565,7.485,19.725,0,27.25c-12.557,11.48-19.12,17.475-22.552,20.602
	c-2.146,1.957-5.395,1.963-7.551,0.017c-3.457-3.123-10.063-9.115-22.688-20.617C16.108,52.389,16.147,40.229,23.594,32.664z"/>
<path display="none" fill="#FFFFFF" d="M15.667,73.668c3-0.332,4.667-2,5-5c0.333,3,2,4.668,5,5c-3,0.334-4.667,2-5,5
	C20.334,75.67,18.667,74.002,15.667,73.668z M74,71.002c-0.332,2.998-2,4.666-5,5c3,0.332,4.668,2,5,4.998
	c0.334-2.998,2.001-4.666,5.001-4.998C76.001,75.668,74.334,74,74,71.002z M40,10.001c-0.332,2.999-2,4.667-5,5
	c3,0.333,4.668,2,5,4.999c0.334-2.999,2.001-4.667,5.001-4.999C42.001,14.668,40.334,13,40,10.001z"/>
<path display="none" fill="#FCF4DF" d="M67,33.003c5.4-0.601,8.4-3.603,9.001-9c0.601,5.398,3.601,8.4,9.001,9
	c-5.4,0.599-8.4,3.6-9.001,8.999C75.4,36.604,72.4,33.603,67,33.003z"/>
<path display="none" fill="#E66E65" d="M25.001,45.688c0-6.444,5.241-11.686,11.685-11.686c0.727,0,1.313,0.588,1.313,1.313
	s-0.588,1.313-1.313,1.313c-4.994,0-9.058,4.064-9.058,9.06c0,0.726-0.588,1.313-1.313,1.313C25.59,47,25.001,46.413,25.001,45.688z
	"/>
<path display="none" fill="#CB4E44" d="M48.453,78.609c-3.457-3.123-10.062-9.115-22.688-20.617l-0.054-0.059l-1.119-1.021
	c-4.93-4.959-6.574-11.921-5.01-18.261c-3.022,7.047-1.714,15.504,4.01,21.261c12.625,11.503,19.23,17.494,22.689,20.617
	c2.156,1.946,5.404,1.939,7.551-0.017l1.802-1.645C53.497,80.521,50.492,80.451,48.453,78.609z"/>
<path display="none" fill="#F9DDDB" d="M78.783,35.637c-0.689-1.048-1.487-2.046-2.399-2.973c-0.979-0.996-1.956-1.836-2.929-2.55
	c-1.51,1.604-3.652,2.578-6.455,2.89c5.4,0.599,8.4,3.6,9.001,8.999C76.307,39.259,77.238,37.141,78.783,35.637z"/>
<path fill="#E2574C" d="M35.013,97.707c3.207,1.008,6.551,1.701,10,2.043V0.249c-3.449,0.343-6.793,1.036-10,2.043V97.707z"/>
<path fill="#E4E7E7" d="M55.014,0.249c-1.645-0.163-3.312-0.25-5-0.25s-3.355,0.086-5,0.25V99.75c1.645,0.164,3.312,0.25,5,0.25
	s3.356-0.086,5-0.25V0.249z"/>
<path fill="#324D5B" d="M55.014,0.256v99.487c3.447-0.343,6.795-1.028,10-2.036V2.292C61.809,1.285,58.461,0.6,55.014,0.256z"/>
<path fill="#F5F5F5" d="M77.014,49.998c0-7.501-3.061-14.285-8-19.179V24c0-1.133-0.93-2.001-2-2.001h-1c-0.553,0-1,0.448-1,1v4.55
	c-4.291-2.873-9.449-4.55-15-4.55c-5.551,0-10.709,1.677-15,4.55v-4.55c0-0.552-0.448-1-1-1h-1c-1.071,0-2,0.868-2,2.001v6.819
	c-4.939,4.894-8,11.678-8,19.179c0,7.502,3.061,14.287,8,19.18v6.821c0,1.179,0.921,1.999,2,1.999h1c0.552,0,1-0.447,1-1v-4.549
	c4.291,2.871,9.449,4.549,15,4.549c5.55,0,10.708-1.678,15-4.549v4.549c0,0.553,0.447,1,1,1h1c1.078,0,2-0.82,2-1.999v-6.821
	C73.953,64.285,77.014,57.5,77.014,49.998z"/>
<path fill="#CCD0D2" d="M50.013,27c12.704,0,23,10.297,23,23s-10.297,23-23,23c-12.703,0-23-10.299-23-23.001S37.311,27,50.013,27z"
	/>
<path fill="#DE6E65" d="M54.309,44.275L38.322,60.264c-0.394,0.394-0.394,1.033,0,1.428c0.395,0.394,1.033,0.394,1.428,0
	l15.986-15.986c0.396-0.394,0.396-1.033,0-1.429C55.342,43.883,54.703,43.883,54.309,44.275z"/>
<path fill="#AEB2B4" d="M50.01,54.008c-2.212,0-4.004-1.791-4.004-4.003c0-0.851,0.269-1.636,0.722-2.284
	c-1.039,0.724-1.722,1.923-1.722,3.284c0,2.212,1.792,4.003,4.004,4.003c1.361,0,2.561-0.683,3.283-1.721
	C51.645,53.739,50.859,54.008,50.01,54.008z"/>
<path fill="#324D5B" d="M50.013,49h16c0.553,0,1,0.447,1,0.999s-0.447,1-1,1h-16c-0.553,0-1-0.448-1-1S49.46,49,50.013,49z
	 M43.199,40.538l8.246,8.247c0.73,0.73,0.73,1.916,0,2.646c-0.729,0.729-1.916,0.729-2.646,0l-8.247-8.249
	c-0.731-0.73-0.731-1.916,0-2.646C41.283,39.807,42.467,39.807,43.199,40.538L43.199,40.538z"/>
<path fill="#E4E7E7" d="M50.01,46c2.211,0,4.004,1.793,4.004,4.005s-1.793,4.003-4.004,4.003c-2.212,0-4.004-1.791-4.004-4.003
	S47.798,46,50.01,46z"/>
<path fill="#324D5B" d="M50.013,48c1.104,0,2,0.895,2,1.999c0,1.104-0.896,2.001-2,2.001s-2-0.896-2-2.001
	C48.013,48.895,48.909,48,50.013,48z"/>
<path fill="#D96860" d="M46.568,52.018l-1,1c0.347,0.592,0.836,1.082,1.427,1.428l1-1C47.404,53.1,46.915,52.609,46.568,52.018z"/>
<path fill="#B7BBBD" d="M50.013,27c-6.605,0-12.557,2.789-16.751,7.249C37.377,30.376,42.917,28,49.013,28c12.704,0,23,10.297,23,23
	c0,6.098-2.378,11.636-6.25,15.753c4.461-4.194,7.25-10.147,7.25-16.753C73.014,37.297,62.717,27,50.013,27z"/>
</svg>
