<?xml version="1.0" encoding="utf-8"?>
<!-- Generator: Adobe Illustrator 16.0.0, SVG Export Plug-In . SVG Version: 6.00 Build 0)  -->
<!DOCTYPE svg PUBLIC "-//W3C//DTD SVG 1.1//EN" "http://www.w3.org/Graphics/SVG/1.1/DTD/svg11.dtd">
<svg version="1.1" xmlns="http://www.w3.org/2000/svg" xmlns:xlink="http://www.w3.org/1999/xlink" x="0px" y="0px"
	 width="190.461px" height="190.666px" viewBox="-138.54 -132.334 190.461 190.666"
	 enable-background="new -138.54 -132.334 190.461 190.666" xml:space="preserve">
<g id="Layer_2">
	<path fill="#FFE600" d="M-10.325,25.192c-1.354,0.343-2.762,0.525-4.214,0.474c-4.317-0.152-8.35-0.979-12.101-2.488
		c-7.428,3.175-17.961,0.867-21.578-6.932c-1.204-2.596-2.192-5.167-2.986-7.766C-66.779,6.96-83.144-2.747-93.002-13.989
		c-6.881-7.848-12.095-16.739-12.687-27.395c-0.099-1.778-0.048-3.615,0.13-5.464l-7.311-5.53l-25.671,20.043v90.666h118
		L5.966,37.516L-10.325,25.192z"/>
</g>
<g id="Capa_1">
	<g>
		<path fill="#020202" d="M-36.564,23.982c0-3.957,2.794-7.342,6.673-8.104C2.066,9.604,26.25-18.611,26.25-52.377
			c0-38.355-31.207-69.56-69.56-69.56c-38.355,0-69.56,31.204-69.56,69.56c0,33.767,24.182,61.981,56.138,68.256
			c3.874,0.762,6.677,4.155,6.677,8.104v0.041h-37.643c-4.465,0-8.088,3.621-8.088,8.088c0,2.983,2.42,5.404,5.404,5.404H5.966
			c2.987,0,5.404-2.421,5.404-5.404c0-4.467-3.621-8.088-8.087-8.088h-39.848V23.982z M-104.775-52.377
			c0-33.893,27.573-61.464,61.464-61.464c33.889,0,61.463,27.574,61.463,61.464c0,33.892-27.575,61.466-61.463,61.466
			C-77.202,9.092-104.775-18.483-104.775-52.377z"/>
		<path fill="#020202" d="M-42.716,5.216c8.862,0,13.859-2.884,16.245-7.554c15.46-5.223,27.71-17.397,33.05-32.798
			c5.079-1.867,8.236-7.145,8.236-18.376c0-9.406-3.25-14.46-8.435-16.649C1.088-84.904-10.553-96.597-25.251-101.97
			c-1.585-5.568-6.814-9.076-18.654-9.076c-9.658,0-14.746,3.411-16.835,8.848c-14.769,5.184-26.527,16.727-32.006,31.354
			c-5.345,1.721-8.695,6.965-8.695,18.528c0,9.115,3.056,14.137,7.964,16.427c5.11,15.5,17.205,27.813,32.547,33.261
			C-58.937,2.218-53.65,5.216-42.716,5.216z M-30.672-37.09c1.417-1.285,2.634-2.781,3.61-4.441
			c2.504,0.717,5.199,1.503,8.112,2.414c-2.247,4.106-5.505,7.57-9.429,10.088C-29.249-32.005-30.005-34.688-30.672-37.09z
			 M-30.412-64.735c-0.707-0.667-1.458-1.289-2.26-1.84c0.862-2.984,1.797-6.314,2.935-9.973c3.857,2.174,7.142,5.238,9.576,8.918
			C-24.091-66.49-27.49-65.557-30.412-64.735z M-55.104-65.707c-0.779,0.627-1.504,1.327-2.176,2.071
			c-2.956-0.85-6.242-1.779-9.844-2.901c2.268-3.796,5.404-6.998,9.147-9.344C-56.845-71.985-55.917-68.607-55.104-65.707z
			 M-58.826-40.358c1.102,1.599,2.453,3.014,3.988,4.201c-0.694,2.412-1.452,5.003-2.327,7.778c-4.04-2.339-7.429-5.67-9.85-9.66
			C-63.977-38.925-61.265-39.681-58.826-40.358z M-27.281-25.316c-0.111-0.363-0.204-0.688-0.307-1.046
			c4.743-2.875,8.646-6.993,11.232-11.92c0.217,0.07,0.423,0.133,0.642,0.206c3.472,1.154,6.838,2.182,9.988,2.873
			c-3.971,8.64-10.814,15.671-19.319,19.88C-25.46-18.473-26.23-21.828-27.281-25.316z M-15.714-68.943
			c-0.621,0.186-1.179,0.347-1.775,0.524c-2.808-4.501-6.732-8.234-11.413-10.763c0.149-0.447,0.279-0.874,0.431-1.329
			c1.065-3.212,2.027-6.329,2.71-9.268c8.32,3.922,15.121,10.513,19.289,18.69C-9.401-70.65-12.507-69.912-15.714-68.943z
			 M-59.342-80.511c0.205,0.68,0.385,1.301,0.578,1.954c-4.568,2.705-8.371,6.558-11,11.173c-0.385-0.125-0.755-0.239-1.146-0.369
			c-3.302-1.098-6.503-2.082-9.517-2.77c4.046-8.241,10.733-14.927,18.972-18.972C-61.01-86.639-60.281-83.622-59.342-80.511z
			 M-70.91-36.884c0.424-0.13,0.808-0.238,1.221-0.363c2.775,4.813,6.811,8.812,11.673,11.508c-0.047,0.146-0.089,0.282-0.137,0.423
			c-1.182,3.567-2.239,7.014-2.93,10.234c-8.56-4.092-15.484-11.028-19.562-19.598C-77.568-35.103-74.299-35.865-70.91-36.884z
			 M-25.268-5.652c0.49-2.058,0.626-4.348,0.49-6.803c9.685-4.518,17.471-12.427,21.789-22.225c2.307,0.358,4.469,0.482,6.435,0.26
			C-1.636-21.242-12.096-10.756-25.268-5.652z M3.153-71.13c-2.071-0.394-4.347-0.469-6.787-0.281
			C-8.119-80.725-15.765-88.225-25.2-92.5c0.404-2.288,0.58-4.441,0.447-6.416C-12.09-93.844-1.967-83.77,3.153-71.13z
			 M-61.582-99.017c-0.35,2.053-0.419,4.291-0.214,6.697c-9.377,4.357-16.955,11.902-21.359,21.253
			c-2.328-0.392-4.513-0.549-6.506-0.377C-84.463-84.033-74.277-94.024-61.582-99.017z M-90.194-34.759
			c2.031,0.431,4.291,0.521,6.697,0.366c4.382,9.749,12.198,17.609,21.912,22.062c-0.35,2.355-0.442,4.545-0.175,6.535
			C-74.848-11-85.215-21.557-90.194-34.759z"/>
	</g>
</g>
</svg>
